<?xml version="1.0" encoding="UTF-8" standalone="no"?>
<!-- Created with Inkscape (http://www.inkscape.org/) -->

<svg
   xmlns:dc="http://purl.org/dc/elements/1.1/"
   xmlns:cc="http://creativecommons.org/ns#"
   xmlns:rdf="http://www.w3.org/1999/02/22-rdf-syntax-ns#"
   xmlns:svg="http://www.w3.org/2000/svg"
   xmlns="http://www.w3.org/2000/svg"
   xmlns:xlink="http://www.w3.org/1999/xlink"
   version="1.1"
   width="40"
   height="39.999916"
   id="svg2">
  <defs
     id="defs4">
    <linearGradient
       id="linearGradient3960">
      <stop
         id="stop3962"
         style="stop-color:#f2f2f2;stop-opacity:1"
         offset="0" />
      <stop
         id="stop3964"
         style="stop-color:#ffffff;stop-opacity:1"
         offset="1" />
    </linearGradient>
    <linearGradient
       id="linearGradient3926">
      <stop
         id="stop3928"
         style="stop-color:#ffffff;stop-opacity:1"
         offset="0" />
      <stop
         id="stop3930"
         style="stop-color:#ffffff;stop-opacity:0.48201439"
         offset="1" />
    </linearGradient>
    <linearGradient
       id="linearGradient3887">
      <stop
         id="stop3889"
         style="stop-color:#000000;stop-opacity:1"
         offset="0" />
      <stop
         id="stop3891"
         style="stop-color:#080808;stop-opacity:1"
         offset="1" />
    </linearGradient>
    <linearGradient
       id="linearGradient3036">
      <stop
         id="stop3038"
         style="stop-color:#ffffff;stop-opacity:1"
         offset="0" />
      <stop
         id="stop3040"
         style="stop-color:#cdcdcd;stop-opacity:1"
         offset="1" />
    </linearGradient>
    <linearGradient
       id="linearGradient2987">
      <stop
         id="stop3968"
         style="stop-color:#870000;stop-opacity:1"
         offset="0" />
      <stop
         id="stop2991"
         style="stop-color:#940d0d;stop-opacity:1"
         offset="1" />
    </linearGradient>
    <linearGradient
       x1="61.715698"
       y1="118.92786"
       x2="678.57141"
       y2="740.07648"
       id="linearGradient2993"
       xlink:href="#linearGradient2987"
       gradientUnits="userSpaceOnUse"
       gradientTransform="translate(981.49292,-25.944012)" />
    <linearGradient
       x1="347.49246"
       y1="389.70209"
       x2="656.59918"
       y2="128.0726"
       id="linearGradient3042-0"
       xlink:href="#linearGradient3036-0"
       gradientUnits="userSpaceOnUse" />
    <linearGradient
       id="linearGradient3036-0">
      <stop
         id="stop3038-2"
         style="stop-color:#ffffff;stop-opacity:1"
         offset="0" />
      <stop
         id="stop3040-8"
         style="stop-color:#cdcdcd;stop-opacity:1"
         offset="1" />
    </linearGradient>
    <linearGradient
       x1="174"
       y1="236.36096"
       x2="339.63779"
       y2="396.16711"
       id="linearGradient3893"
       xlink:href="#linearGradient3887"
       gradientUnits="userSpaceOnUse"
       gradientTransform="translate(978.63578,22.627417)" />
    <linearGradient
       x1="5.1568484"
       y1="16.00102"
       x2="729.23419"
       y2="1042.7201"
       id="linearGradient3966"
       xlink:href="#linearGradient3960"
       gradientUnits="userSpaceOnUse" />
  </defs>
  <metadata
     id="metadata7">
    <rdf:RDF>
      <cc:Work
         rdf:about="">
        <dc:format>image/svg+xml</dc:format>
        <dc:type
           rdf:resource="http://purl.org/dc/dcmitype/StillImage" />
        <dc:title></dc:title>
      </cc:Work>
    </rdf:RDF>
  </metadata>
  <g
     transform="matrix(0.06334828,0,0,0.06334828,-65.614799,-5.2934199)"
     id="layer1">
    <path
       d="m 126.21875,126.21875 0,379 379,0 0,-379 -379,0 z m 16.25,16.25 346.5,0 0,346.5 -346.5,0 0,-346.5 z"
       transform="translate(1035.7787,83.561028)"
       id="rect3015"
       style="fill:#000000;fill-opacity:1;stroke:none" />
  </g>
</svg>
